Recent rstats hashtag | Young-geun Kim
…
Make a tibble

(tag_tibble <- tibble(x = other_tag))
#> # A tibble: 150 x 1
#>    x               
#>    <chr>           
#>  1 #MachineLearning
#>  2 #DataScience    
#>  3 #AI             
#>  4 #BigData        
#>  5 #Analytics      
#>  6 #IoT            
#>  7 #IIoT           
#>  8 #Python         
#>  9 #DataScience    
#> 10 #BigData        
#> # … with 140 more rows
…
