Introduction to bvhar • bvhar
…
ETF Dataset

This package includes some datasets. Among them, we try CBOE ETF
volatility index (etf_vix). Since this is just an example,
we arbitrarily extract a small number of variables: Gold, crude oil,
euro currency, and china ETF.

var_idx <- c("GVZCLS", "OVXCLS", "EVZCLS", "VXFXICLS")
etf <- 
  etf_vix |> 
  dplyr::select(dplyr::all_of(var_idx))
etf
#> # A tibble: 905 × 4
#>    GVZCLS OVXCLS EVZCLS VXFXICLS
#>     <dbl>  <dbl>  <dbl>    <dbl>
#>  1   21.5   36.5   13.2     30.2
#>  2   21.5   35.4   12.6     28.9
#>  3   22.3   35.5   13.1     29.1
#>  4   21.6   36.6   12.8     28.5
#>  5   21.2   35.6   13.3     29.5
#>  6   21.4   34.8   13.2     29.1
#>  7   21.6   34.0   13.2     28.7
#>  8   21.1   32.6   12.8     28.0
#>  9   20.3   33.5   12.7     28.9
#> 10   19.6   33.4   12.4     28.0
#> # ℹ 895 more rows
…
